{
  "validation.maxAttachments": "sono consentiti solo {{max}} allegati",
  "validation.minAttachments": "sono richiesti almeno {{min}} allegati",
  "validation.maxAttachmentSize": "Gli allegati non possono essere più grandi di {{max}} Megabyte"
}