{
  "validation.maxAttachments": "slechts {{max}} bijlagen zijn toegestaan",
  "validation.minAttachments": "er zijn minimaal {{min}} bijlagen vereist",
  "validation.maxAttachmentSize": "Bijlagen kunnen niet groter zijn dan {{max}} Megabytes"
}